'0, 0' : '1'
'0, 1' : '2'
'0, 2' : '3'
'0, 3' : '4'
'0, 4' : 'null'
'0, 5' : 'null'
'0, 6' : '5'
'0, 7' : '6'
'0, 8' : 'null'
'0, 9' : '7'
'0, 10' : 'null'
'0, 11' : '8'
'0, 12' : 'null'
'0, 13' : '9'
'0, 14' : '10'
'0, 15' : 'null'
'0, 16' : 'null'
'0, 17' : '11'
'0, 18' : 'null'
'0, 19' : '12'
'0, 20' : '13'
'0, 21' : '14'
'0, 22' : 'null'
'0, 23' : '15'
'0, 24' : '16'
'0, 25' : '17'
'0, 26' : '18'
'0, 27' : '19'
'0, 28' : '20'
'0, 29' : '21'
'0, 30' : 'null'
'0, 31' : '22'
'0, 32' : '23'
'0, 33' : 'null'
'0, 34' : '24'
'0, 35' : '25'
'0, 36' : 'null'
'0, 37' : '26'
'0, 38' : 'null'
'0, 39' : '27'
'0, 40' : '28'
'0, 41' : '29'
'0, 42' : '30'
'0, 43' : 'null'
'0, 44' : '31'
'0, 45' : '32'
'0, 46' : 'null'
'0, 47' : 'null'
'0, 48' : 'null'
'0, 49' : '33'
'1, 0' : '34'
'1, 1' : '35'
'1, 2' : '36'
'1, 3' : '37'
'1, 4' : '38'
'1, 5' : 'null'
'1, 6' : 'null'
'1, 7' : '39'
'1, 8' : '40'
'1, 9' : '41'
'1, 10' : 'null'
'1, 11' : '42'
'1, 12' : 'null'
'1, 13' : '43'
'1, 14' : 'null'
'1, 15' : 'null'
'1, 16' : 'null'
'1, 17' : 'null'
'1, 18' : '44'
'1, 19' : '45'
'1, 20' : 'null'
'1, 21' : '46'
'1, 22' : 'null'
'1, 23' : 'null'
'1, 24' : '47'
'1, 25' : 'null'
'1, 26' : '48'
'1, 27' : '49'
'1, 28' : '50'
'1, 29' : 'null'
'1, 30' : 'null'
'1, 31' : 'null'
'1, 32' : 'null'
'1, 33' : 'null'
'1, 34' : '51'
'1, 35' : 'null'
'1, 36' : 'null'
'1, 37' : '52'
'1, 38' : 'null'
'1, 39' : 'null'
'1, 40' : 'null'
'1, 41' : 'null'
'1, 42' : '53'
'1, 43' : '54'
'1, 44' : '55'
'1, 45' : '56'
'1, 46' : '57'
'1, 47' : 'null'
'1, 48' : '58'
'1, 49' : '59'
'2, 0' : 'null'
'2, 1' : '60'
'2, 2' : 'null'
'2, 3' : '61'
'2, 4' : 'null'
'2, 5' : 'null'
'2, 6' : '62'
'2, 7' : 'null'
'2, 8' : 'null'
'2, 9' : 'null'
'2, 10' : 'null'
'2, 11' : 'null'
'2, 12' : '63'
'2, 13' : 'null'
'2, 14' : 'null'
'2, 15' : '64'
'2, 16' : '65'
'2, 17' : '66'
'2, 18' : '67'
'2, 19' : 'null'
'2, 20' : 'null'
'2, 21' : '68'
'2, 22' : 'null'
'2, 23' : '69'
'2, 24' : 'null'
'2, 25' : 'null'
'2, 26' : '70'
'2, 27' : 'null'
'2, 28' : 'null'
'2, 29' : 'null'
'2, 30' : '71'
'2, 31' : 'null'
'2, 32' : 'null'
'2, 33' : '72'
'2, 34' : '73'
'2, 35' : 'null'
'2, 36' : 'null'
'2, 37' : 'null'
'2, 38' : '74'
'2, 39' : 'null'
'2, 40' : 'null'
'2, 41' : '75'
'2, 42' : '76'
'2, 43' : '77'
'2, 44' : '78'
'2, 45' : '79'
'2, 46' : '80'
'2, 47' : '81'
'2, 48' : 'null'
'2, 49' : '82'
'3, 0' : 'null'
'3, 1' : 'null'
'3, 2' : 'null'
'3, 3' : '83'
'3, 4' : 'null'
'3, 5' : '84'
'3, 6' : 'null'
'3, 7' : '85'
'3, 8' : 'null'
'3, 9' : 'null'
'3, 10' : 'null'
'3, 11' : 'null'
'3, 12' : '86'
'3, 13' : '87'
'3, 14' : '88'
'3, 15' : '89'
'3, 16' : '90'
'3, 17' : '91'
'3, 18' : '92'
'3, 19' : '93'
'3, 20' : 'null'
'3, 21' : '94'
'3, 22' : 'null'
'3, 23' : '95'
'3, 24' : 'null'
'3, 25' : '96'
'3, 26' : '97'
'3, 27' : '98'
'3, 28' : 'null'
'3, 29' : 'null'
'3, 30' : 'null'
'3, 31' : '99'
'3, 32' : 'null'
'3, 33' : '100'
'3, 34' : 'null'
'3, 35' : '101'
'3, 36' : 'null'
'3, 37' : 'null'
'3, 38' : 'null'
'3, 39' : '102'
'3, 40' : 'null'
'3, 41' : '103'
'3, 42' : '104'
'3, 43' : '105'
'3, 44' : '106'
'3, 45' : 'null'
'3, 46' : '107'
'3, 47' : '108'
'3, 48' : '109'
'3, 49' : 'null'
'4, 0' : 'null'
'4, 1' : 'null'
'4, 2' : '110'
'4, 3' : '111'
'4, 4' : 'null'
'4, 5' : 'null'
'4, 6' : 'null'
'4, 7' : 'null'
'4, 8' : 'null'
'4, 9' : 'null'
'4, 10' : 'null'
'4, 11' : '112'
'4, 12' : '113'
'4, 13' : 'null'
'4, 14' : 'null'
'4, 15' : '114'
'4, 16' : '115'
'4, 17' : 'null'
'4, 18' : '116'
'4, 19' : '117'
'4, 20' : '118'
'4, 21' : '119'
'4, 22' : 'null'
'4, 23' : 'null'
'4, 24' : '120'
'4, 25' : '121'
'4, 26' : '122'
'4, 27' : '123'
'4, 28' : '124'
'4, 29' : 'null'
'4, 30' : '125'
'4, 31' : 'null'
'4, 32' : '126'
'4, 33' : '127'
'4, 34' : '128'
'4, 35' : 'null'
'4, 36' : 'null'
'4, 37' : 'null'
'4, 38' : '129'
'4, 39' : 'null'
'4, 40' : '130'
'4, 41' : '131'
'4, 42' : 'null'
'4, 43' : 'null'
'4, 44' : 'null'
'4, 45' : '132'
'4, 46' : '133'
'4, 47' : '134'
'4, 48' : 'null'
'4, 49' : 'null'
'5, 0' : '135'
'5, 1' : '136'
'5, 2' : 'null'
'5, 3' : '137'
'5, 4' : '138'
'5, 5' : '139'
'5, 6' : 'null'
'5, 7' : 'null'
'5, 8' : '140'
'5, 9' : '141'
'5, 10' : '142'
'5, 11' : 'null'
'5, 12' : 'null'
'5, 13' : 'null'
'5, 14' : '143'
'5, 15' : '144'
'5, 16' : '145'
'5, 17' : '146'
'5, 18' : '147'
'5, 19' : 'null'
'5, 20' : '148'
'5, 21' : '149'
'5, 22' : 'null'
'5, 23' : '150'
'5, 24' : 'null'
'5, 25' : 'null'
'5, 26' : '151'
'5, 27' : '152'
'5, 28' : 'null'
'5, 29' : '153'
'5, 30' : '154'
'5, 31' : '155'
'5, 32' : '156'
'5, 33' : '157'
'5, 34' : 'null'
'5, 35' : '158'
'5, 36' : '159'
'5, 37' : '160'
'5, 38' : 'null'
'5, 39' : 'null'
'5, 40' : 'null'
'5, 41' : '161'
'5, 42' : '162'
'5, 43' : '163'
'5, 44' : 'null'
'5, 45' : 'null'
'5, 46' : 'null'
'5, 47' : '164'
'5, 48' : '165'
'5, 49' : '166'
'6, 0' : '167'
'6, 1' : 'null'
'6, 2' : '168'
'6, 3' : 'null'
'6, 4' : 'null'
'6, 5' : '169'
'6, 6' : '170'
'6, 7' : '171'
'6, 8' : '172'
'6, 9' : 'null'
'6, 10' : '173'
'6, 11' : '174'
'6, 12' : '175'
'6, 13' : 'null'
'6, 14' : '176'
'6, 15' : 'null'
'6, 16' : '177'
'6, 17' : '178'
'6, 18' : '179'
'6, 19' : '180'
'6, 20' : '181'
'6, 21' : 'null'
'6, 22' : '182'
'6, 23' : 'null'
'6, 24' : 'null'
'6, 25' : 'null'
'6, 26' : 'null'
'6, 27' : '183'
'6, 28' : 'null'
'6, 29' : 'null'
'6, 30' : 'null'
'6, 31' : '184'
'6, 32' : '185'
'6, 33' : 'null'
'6, 34' : '186'
'6, 35' : 'null'
'6, 36' : '187'
'6, 37' : 'null'
'6, 38' : 'null'
'6, 39' : 'null'
'6, 40' : '188'
'6, 41' : 'null'
'6, 42' : '189'
'6, 43' : 'null'
'6, 44' : 'null'
'6, 45' : 'null'
'6, 46' : 'null'
'6, 47' : '190'
'6, 48' : '191'
'6, 49' : 'null'
'7, 0' : '192'
'7, 1' : 'null'
'7, 2' : '193'
'7, 3' : '194'
'7, 4' : '195'
'7, 5' : '196'
'7, 6' : '197'
'7, 7' : '198'
'7, 8' : '199'
'7, 9' : '200'
'7, 10' : 'null'
'7, 11' : 'null'
'7, 12' : 'null'
'7, 13' : 'null'
'7, 14' : 'null'
'7, 15' : 'null'
'7, 16' : 'null'
'7, 17' : '201'
'7, 18' : 'null'
'7, 19' : 'null'
'7, 20' : 'null'
'7, 21' : 'null'
'7, 22' : 'null'
'7, 23' : '202'
'7, 24' : 'null'
'7, 25' : 'null'
'7, 26' : '203'
'7, 27' : 'null'
'7, 28' : 'null'
'7, 29' : '204'
'7, 30' : 'null'
'7, 31' : '205'
'7, 32' : '206'
'7, 33' : 'null'
'7, 34' : 'null'
'7, 35' : '207'
'7, 36' : 'null'
'7, 37' : 'null'
'7, 38' : 'null'
'7, 39' : '208'
'7, 40' : 'null'
'7, 41' : 'null'
'7, 42' : '209'
'7, 43' : '210'
'7, 44' : '211'
'7, 45' : '212'
'7, 46' : '213'
'7, 47' : '214'
'7, 48' : '215'
'7, 49' : '216'
'8, 0' : '217'
'8, 1' : 'null'
'8, 2' : '218'
'8, 3' : 'null'
'8, 4' : '219'
'8, 5' : '220'
'8, 6' : 'null'
'8, 7' : '221'
'8, 8' : 'null'
'8, 9' : '222'
'8, 10' : '223'
'8, 11' : '224'
'8, 12' : 'null'
'8, 13' : 'null'
'8, 14' : 'null'
'8, 15' : 'null'
'8, 16' : '225'
'8, 17' : '226'
'8, 18' : '227'
'8, 19' : 'null'
'8, 20' : 'null'
'8, 21' : '228'
'8, 22' : '229'
'8, 23' : '230'
'8, 24' : '231'
'8, 25' : '232'
'8, 26' : '233'
'8, 27' : '234'
'8, 28' : '235'
'8, 29' : '236'
'8, 30' : 'null'
'8, 31' : '237'
'8, 32' : 'null'
'8, 33' : '238'
'8, 34' : '239'
'8, 35' : '240'
'8, 36' : '241'
'8, 37' : 'null'
'8, 38' : 'null'
'8, 39' : '242'
'8, 40' : 'null'
'8, 41' : '243'
'8, 42' : 'null'
'8, 43' : 'null'
'8, 44' : '244'
'8, 45' : 'null'
'8, 46' : '245'
'8, 47' : '246'
'8, 48' : 'null'
'8, 49' : '247'
'9, 0' : '248'
'9, 1' : '249'
'9, 2' : '250'
'9, 3' : 'null'
'9, 4' : 'null'
'9, 5' : 'null'
'9, 6' : '251'
'9, 7' : 'null'
'9, 8' : '252'
'9, 9' : 'null'
'9, 10' : '253'
'9, 11' : 'null'
'9, 12' : 'null'
'9, 13' : 'null'
'9, 14' : 'null'
'9, 15' : 'null'
'9, 16' : '254'
'9, 17' : '255'
'9, 18' : 'null'
'9, 19' : 'null'
'9, 20' : '256'
'9, 21' : 'null'
'9, 22' : '257'
'9, 23' : 'null'
'9, 24' : 'null'
'9, 25' : 'null'
'9, 26' : 'null'
'9, 27' : 'null'
'9, 28' : '258'
'9, 29' : 'null'
'9, 30' : '259'
'9, 31' : 'null'
'9, 32' : '260'
'9, 33' : '261'
'9, 34' : '262'
'9, 35' : 'null'
'9, 36' : 'null'
'9, 37' : '263'
'9, 38' : '264'
'9, 39' : 'null'
'9, 40' : 'null'
'9, 41' : 'null'
'9, 42' : '265'
'9, 43' : '266'
'9, 44' : '267'
'9, 45' : '268'
'9, 46' : '269'
'9, 47' : 'null'
'9, 48' : '270'
'9, 49' : 'null'
'10, 0' : 'null'
'10, 1' : '271'
'10, 2' : 'null'
'10, 3' : '272'
'10, 4' : '273'
'10, 5' : '274'
'10, 6' : 'null'
'10, 7' : 'null'
'10, 8' : '275'
'10, 9' : 'null'
'10, 10' : 'null'
'10, 11' : 'null'
'10, 12' : 'null'
'10, 13' : '276'
'10, 14' : 'null'
'10, 15' : 'null'
'10, 16' : '277'
'10, 17' : '278'
'10, 18' : 'null'
'10, 19' : 'null'
'10, 20' : '279'
'10, 21' : 'null'
'10, 22' : 'null'
'10, 23' : '280'
'10, 24' : 'null'
'10, 25' : '281'
'10, 26' : '282'
'10, 27' : 'null'
'10, 28' : 'null'
'10, 29' : 'null'
'10, 30' : 'null'
'10, 31' : '283'
'10, 32' : 'null'
'10, 33' : '284'
'10, 34' : '285'
'10, 35' : 'null'
'10, 36' : 'null'
'10, 37' : 'null'
'10, 38' : 'null'
'10, 39' : '286'
'10, 40' : 'null'
'10, 41' : 'null'
'10, 42' : '287'
'10, 43' : 'null'
'10, 44' : 'null'
'10, 45' : '288'
'10, 46' : '289'
'10, 47' : 'null'
'10, 48' : '290'
'10, 49' : 'null'
'11, 0' : 'null'
'11, 1' : 'null'
'11, 2' : 'null'
'11, 3' : '291'
'11, 4' : '292'
'11, 5' : '293'
'11, 6' : 'null'
'11, 7' : '294'
'11, 8' : '295'
'11, 9' : '296'
'11, 10' : 'null'
'11, 11' : '297'
'11, 12' : 'null'
'11, 13' : 'null'
'11, 14' : '298'
'11, 15' : '299'
'11, 16' : 'null'
'11, 17' : '300'
'11, 18' : 'null'
'11, 19' : '301'
'11, 20' : '302'
'11, 21' : '303'
'11, 22' : 'null'
'11, 23' : '304'
'11, 24' : 'null'
'11, 25' : '305'
'11, 26' : '306'
'11, 27' : '307'
'11, 28' : '308'
'11, 29' : 'null'
'11, 30' : 'null'
'11, 31' : 'null'
'11, 32' : '309'
'11, 33' : 'null'
'11, 34' : 'null'
'11, 35' : 'null'
'11, 36' : 'null'
'11, 37' : 'null'
'11, 38' : '310'
'11, 39' : 'null'
'11, 40' : '311'
'11, 41' : 'null'
'11, 42' : 'null'
'11, 43' : 'null'
'11, 44' : '312'
'11, 45' : '313'
'11, 46' : '314'
'11, 47' : 'null'
'11, 48' : 'null'
'11, 49' : '315'
'12, 0' : 'null'
'12, 1' : '316'
'12, 2' : '317'
'12, 3' : '318'
'12, 4' : 'null'
'12, 5' : 'null'
'12, 6' : '319'
'12, 7' : '320'
'12, 8' : '321'
'12, 9' : '322'
'12, 10' : '323'
'12, 11' : 'null'
'12, 12' : 'null'
'12, 13' : '324'
'12, 14' : 'null'
'12, 15' : '325'
'12, 16' : '326'
'12, 17' : 'null'
'12, 18' : 'null'
'12, 19' : 'null'
'12, 20' : 'null'
'12, 21' : 'null'
'12, 22' : '327'
'12, 23' : '328'
'12, 24' : '329'
'12, 25' : '330'
'12, 26' : 'null'
'12, 27' : '331'
'12, 28' : 'null'
'12, 29' : 'null'
'12, 30' : '332'
'12, 31' : '333'
'12, 32' : 'null'
'12, 33' : '334'
'12, 34' : 'null'
'12, 35' : '335'
'12, 36' : 'null'
'12, 37' : '336'
'12, 38' : 'null'
'12, 39' : '337'
'12, 40' : 'null'
'12, 41' : 'null'
'12, 42' : '338'
'12, 43' : '339'
'12, 44' : 'null'
'12, 45' : '340'
'12, 46' : '341'
'12, 47' : 'null'
'12, 48' : 'null'
'12, 49' : '342'
'13, 0' : 'null'
'13, 1' : '343'
'13, 2' : 'null'
'13, 3' : '344'
'13, 4' : 'null'
'13, 5' : '345'
'13, 6' : '346'
'13, 7' : '347'
'13, 8' : '348'
'13, 9' : 'null'
'13, 10' : 'null'
'13, 11' : 'null'
'13, 12' : '349'
'13, 13' : 'null'
'13, 14' : 'null'
'13, 15' : 'null'
'13, 16' : 'null'
'13, 17' : 'null'
'13, 18' : 'null'
'13, 19' : '350'
'13, 20' : 'null'
'13, 21' : '351'
'13, 22' : '352'
'13, 23' : 'null'
'13, 24' : '353'
'13, 25' : '354'
'13, 26' : 'null'
'13, 27' : '355'
'13, 28' : 'null'
'13, 29' : '356'
'13, 30' : '357'
'13, 31' : '358'
'13, 32' : 'null'
'13, 33' : '359'
'13, 34' : '360'
'13, 35' : '361'
'13, 36' : 'null'
'13, 37' : 'null'
'13, 38' : '362'
'13, 39' : '363'
'13, 40' : 'null'
'13, 41' : 'null'
'13, 42' : 'null'
'13, 43' : '364'
'13, 44' : 'null'
'13, 45' : '365'
'13, 46' : 'null'
'13, 47' : 'null'
'13, 48' : 'null'
'13, 49' : 'null'
'14, 0' : '366'
'14, 1' : 'null'
'14, 2' : '367'
'14, 3' : '368'
'14, 4' : 'null'
'14, 5' : '369'
'14, 6' : 'null'
'14, 7' : 'null'
'14, 8' : '370'
'14, 9' : '371'
'14, 10' : 'null'
'14, 11' : '372'
'14, 12' : 'null'
'14, 13' : 'null'
'14, 14' : 'null'
'14, 15' : '373'
'14, 16' : '374'
'14, 17' : 'null'
'14, 18' : '375'
'14, 19' : 'null'
'14, 20' : '376'
'14, 21' : '377'
'14, 22' : '378'
'14, 23' : 'null'
'14, 24' : 'null'
'14, 25' : '379'
'14, 26' : '380'
'14, 27' : '381'
'14, 28' : '382'
'14, 29' : '383'
'14, 30' : '384'
'14, 31' : 'null'
'14, 32' : '385'
'14, 33' : '386'
'14, 34' : 'null'
'14, 35' : 'null'
'14, 36' : 'null'
'14, 37' : 'null'
'14, 38' : '387'
'14, 39' : '388'
'14, 40' : 'null'
'14, 41' : '389'
'14, 42' : 'null'
'14, 43' : '390'
'14, 44' : 'null'
'14, 45' : '391'
'14, 46' : '392'
'14, 47' : '393'
'14, 48' : '394'
'14, 49' : '395'
'15, 0' : 'null'
'15, 1' : 'null'
'15, 2' : '396'
'15, 3' : '397'
'15, 4' : 'null'
'15, 5' : 'null'
'15, 6' : 'null'
'15, 7' : 'null'
'15, 8' : '398'
'15, 9' : 'null'
'15, 10' : 'null'
'15, 11' : 'null'
'15, 12' : 'null'
'15, 13' : 'null'
'15, 14' : '399'
'15, 15' : '400'
'15, 16' : '401'
'15, 17' : 'null'
'15, 18' : '402'
'15, 19' : 'null'
'15, 20' : 'null'
'15, 21' : 'null'
'15, 22' : '403'
'15, 23' : '404'
'15, 24' : 'null'
'15, 25' : 'null'
'15, 26' : 'null'
'15, 27' : '405'
'15, 28' : '406'
'15, 29' : 'null'
'15, 30' : 'null'
'15, 31' : '407'
'15, 32' : 'null'
'15, 33' : '408'
'15, 34' : 'null'
'15, 35' : '409'
'15, 36' : '410'
'15, 37' : '411'
'15, 38' : 'null'
'15, 39' : 'null'
'15, 40' : 'null'
'15, 41' : '412'
'15, 42' : '413'
'15, 43' : '414'
'15, 44' : '415'
'15, 45' : '416'
'15, 46' : 'null'
'15, 47' : '417'
'15, 48' : '418'
'15, 49' : '419'
'16, 0' : '420'
'16, 1' : 'null'
'16, 2' : 'null'
'16, 3' : 'null'
'16, 4' : '421'
'16, 5' : '422'
'16, 6' : '423'
'16, 7' : 'null'
'16, 8' : '424'
'16, 9' : '425'
'16, 10' : 'null'
'16, 11' : 'null'
'16, 12' : '426'
'16, 13' : '427'
'16, 14' : '428'
'16, 15' : 'null'
'16, 16' : '429'
'16, 17' : 'null'
'16, 18' : 'null'
'16, 19' : '430'
'16, 20' : '431'
'16, 21' : '432'
'16, 22' : '433'
'16, 23' : '434'
'16, 24' : 'null'
'16, 25' : '435'
'16, 26' : '436'
'16, 27' : '437'
'16, 28' : 'null'
'16, 29' : '438'
'16, 30' : '439'
'16, 31' : 'null'
'16, 32' : 'null'
'16, 33' : '440'
'16, 34' : '441'
'16, 35' : '442'
'16, 36' : 'null'
'16, 37' : 'null'
'16, 38' : 'null'
'16, 39' : '443'
'16, 40' : '444'
'16, 41' : '445'
'16, 42' : 'null'
'16, 43' : 'null'
'16, 44' : '446'
'16, 45' : 'null'
'16, 46' : 'null'
'16, 47' : '447'
'16, 48' : 'null'
'16, 49' : '448'
'17, 0' : 'null'
'17, 1' : 'null'
'17, 2' : '449'
'17, 3' : 'null'
'17, 4' : '450'
'17, 5' : '451'
'17, 6' : '452'
'17, 7' : '453'
'17, 8' : '454'
'17, 9' : 'null'
'17, 10' : 'null'
'17, 11' : 'null'
'17, 12' : '455'
'17, 13' : '456'
'17, 14' : 'null'
'17, 15' : '457'
'17, 16' : '458'
'17, 17' : 'null'
'17, 18' : '459'
'17, 19' : 'null'
'17, 20' : '460'
'17, 21' : 'null'
'17, 22' : 'null'
'17, 23' : 'null'
'17, 24' : 'null'
'17, 25' : '461'
'17, 26' : '462'
'17, 27' : '463'
'17, 28' : '464'
'17, 29' : '465'
'17, 30' : '466'
'17, 31' : '467'
'17, 32' : 'null'
'17, 33' : 'null'
'17, 34' : '468'
'17, 35' : 'null'
'17, 36' : 'null'
'17, 37' : '469'
'17, 38' : '470'
'17, 39' : 'null'
'17, 40' : '471'
'17, 41' : 'null'
'17, 42' : '472'
'17, 43' : '473'
'17, 44' : 'null'
'17, 45' : 'null'
'17, 46' : 'null'
'17, 47' : 'null'
'17, 48' : '474'
'17, 49' : '475'
'18, 0' : '476'
'18, 1' : 'null'
'18, 2' : 'null'
'18, 3' : '477'
'18, 4' : 'null'
'18, 5' : '478'
'18, 6' : 'null'
'18, 7' : 'null'
'18, 8' : 'null'
'18, 9' : '479'
'18, 10' : '480'
'18, 11' : 'null'
'18, 12' : 'null'
'18, 13' : 'null'
'18, 14' : 'null'
'18, 15' : '481'
'18, 16' : 'null'
'18, 17' : '482'
'18, 18' : '483'
'18, 19' : '484'
'18, 20' : '485'
'18, 21' : 'null'
'18, 22' : 'null'
'18, 23' : 'null'
'18, 24' : '486'
'18, 25' : 'null'
'18, 26' : 'null'
'18, 27' : '487'
'18, 28' : 'null'
'18, 29' : '488'
'18, 30' : 'null'
'18, 31' : 'null'
'18, 32' : '489'
'18, 33' : '490'
'18, 34' : 'null'
'18, 35' : 'null'
'18, 36' : 'null'
'18, 37' : 'null'
'18, 38' : '491'
'18, 39' : 'null'
'18, 40' : 'null'
'18, 41' : '492'
'18, 42' : '493'
'18, 43' : '494'
'18, 44' : '495'
'18, 45' : 'null'
'18, 46' : '496'
'18, 47' : 'null'
'18, 48' : '497'
'18, 49' : 'null'
'19, 0' : 'null'
'19, 1' : 'null'
'19, 2' : '498'
'19, 3' : 'null'
'19, 4' : '499'
'19, 5' : '500'
'19, 6' : 'null'
'19, 7' : '501'
'19, 8' : 'null'
'19, 9' : '502'
'19, 10' : 'null'
'19, 11' : '503'
'19, 12' : 'null'
'19, 13' : 'null'
'19, 14' : 'null'
'19, 15' : 'null'
'19, 16' : '504'
'19, 17' : '505'
'19, 18' : '506'
'19, 19' : '507'
'19, 20' : 'null'
'19, 21' : '508'
'19, 22' : 'null'
'19, 23' : '509'
'19, 24' : 'null'
'19, 25' : 'null'
'19, 26' : '510'
'19, 27' : 'null'
'19, 28' : 'null'
'19, 29' : 'null'
'19, 30' : 'null'
'19, 31' : 'null'
'19, 32' : 'null'
'19, 33' : '511'
'19, 34' : '512'
'19, 35' : '513'
'19, 36' : '514'
'19, 37' : '515'
'19, 38' : 'null'
'19, 39' : '516'
'19, 40' : '517'
'19, 41' : '518'
'19, 42' : '519'
'19, 43' : 'null'
'19, 44' : '520'
'19, 45' : 'null'
'19, 46' : 'null'
'19, 47' : 'null'
'19, 48' : '521'
'19, 49' : '522'
'20, 0' : 'null'
'20, 1' : '523'
'20, 2' : '524'
'20, 3' : 'null'
'20, 4' : '525'
'20, 5' : 'null'
'20, 6' : '526'
'20, 7' : '527'
'20, 8' : '528'
'20, 9' : '529'
'20, 10' : '530'
'20, 11' : '531'
'20, 12' : '532'
'20, 13' : 'null'
'20, 14' : 'null'
'20, 15' : '533'
'20, 16' : '534'
'20, 17' : '535'
'20, 18' : 'null'
'20, 19' : '536'
'20, 20' : '537'
'20, 21' : 'null'
'20, 22' : 'null'
'20, 23' : 'null'
'20, 24' : 'null'
'20, 25' : '538'
'20, 26' : '539'
'20, 27' : 'null'
'20, 28' : '540'
'20, 29' : '541'
'20, 30' : 'null'
'20, 31' : 'null'
'20, 32' : '542'
'20, 33' : 'null'
'20, 34' : '543'
'20, 35' : 'null'
'20, 36' : 'null'
'20, 37' : 'null'
'20, 38' : 'null'
'20, 39' : '544'
'20, 40' : 'null'
'20, 41' : '545'
'20, 42' : '546'
'20, 43' : 'null'
'20, 44' : 'null'
'20, 45' : '547'
'20, 46' : '548'
'20, 47' : 'null'
'20, 48' : '549'
'20, 49' : 'null'
'21, 0' : 'null'
'21, 1' : '550'
'21, 2' : 'null'
'21, 3' : 'null'
'21, 4' : 'null'
'21, 5' : 'null'
'21, 6' : '551'
'21, 7' : '552'
'21, 8' : '553'
'21, 9' : '554'
'21, 10' : '555'
'21, 11' : 'null'
'21, 12' : '556'
'21, 13' : '557'
'21, 14' : 'null'
'21, 15' : 'null'
'21, 16' : 'null'
'21, 17' : 'null'
'21, 18' : 'null'
'21, 19' : 'null'
'21, 20' : 'null'
'21, 21' : '558'
'21, 22' : 'null'
'21, 23' : '559'
'21, 24' : '560'
'21, 25' : '561'
'21, 26' : '562'
'21, 27' : '563'
'21, 28' : 'null'
'21, 29' : '564'
'21, 30' : '565'
'21, 31' : 'null'
'21, 32' : 'null'
'21, 33' : '566'
'21, 34' : 'null'
'21, 35' : 'null'
'21, 36' : '567'
'21, 37' : 'null'
'21, 38' : '568'
'21, 39' : 'null'
'21, 40' : '569'
'21, 41' : '570'
'21, 42' : '571'
'21, 43' : '572'
'21, 44' : 'null'
'21, 45' : 'null'
'21, 46' : '573'
'21, 47' : '574'
'21, 48' : '575'
'21, 49' : '576'
'22, 0' : '577'
'22, 1' : 'null'
'22, 2' : '578'
'22, 3' : 'null'
'22, 4' : '579'
'22, 5' : '580'
'22, 6' : '581'
'22, 7' : '582'
'22, 8' : '583'
'22, 9' : '584'
'22, 10' : '585'
'22, 11' : 'null'
'22, 12' : 'null'
'22, 13' : 'null'
'22, 14' : 'null'
'22, 15' : 'null'
'22, 16' : '586'
'22, 17' : '587'
'22, 18' : '588'
'22, 19' : 'null'
'22, 20' : 'null'
'22, 21' : 'null'
'22, 22' : 'null'
'22, 23' : '589'
'22, 24' : 'null'
'22, 25' : 'null'
'22, 26' : '590'
'22, 27' : 'null'
'22, 28' : 'null'
'22, 29' : 'null'
'22, 30' : '591'
'22, 31' : 'null'
'22, 32' : 'null'
'22, 33' : 'null'
'22, 34' : 'null'
'22, 35' : '592'
'22, 36' : '593'
'22, 37' : '594'
'22, 38' : 'null'
'22, 39' : 'null'
'22, 40' : '595'
'22, 41' : '596'
'22, 42' : '597'
'22, 43' : '598'
'22, 44' : '599'
'22, 45' : 'null'
'22, 46' : '600'
'22, 47' : '601'
'22, 48' : '602'
'22, 49' : 'null'
'23, 0' : 'null'
'23, 1' : 'null'
'23, 2' : 'null'
'23, 3' : 'null'
'23, 4' : 'null'
'23, 5' : '603'
'23, 6' : '604'
'23, 7' : 'null'
'23, 8' : '605'
'23, 9' : '606'
'23, 10' : 'null'
'23, 11' : 'null'
'23, 12' : '607'
'23, 13' : 'null'
'23, 14' : '608'
'23, 15' : 'null'
'23, 16' : 'null'
'23, 17' : '609'
'23, 18' : '610'
'23, 19' : 'null'
'23, 20' : '611'
'23, 21' : 'null'
'23, 22' : '612'
'23, 23' : '613'
'23, 24' : 'null'
'23, 25' : 'null'
'23, 26' : '614'
'23, 27' : 'null'
'23, 28' : 'null'
'23, 29' : 'null'
'23, 30' : '615'
'23, 31' : 'null'
'23, 32' : '616'
'23, 33' : 'null'
'23, 34' : 'null'
'23, 35' : 'null'
'23, 36' : '617'
'23, 37' : 'null'
'23, 38' : 'null'
'23, 39' : 'null'
'23, 40' : 'null'
'23, 41' : '618'
'23, 42' : '619'
'23, 43' : '620'
'23, 44' : 'null'
'23, 45' : 'null'
'23, 46' : 'null'
'23, 47' : 'null'
'23, 48' : 'null'
'23, 49' : '621'
'24, 0' : 'null'
'24, 1' : 'null'
'24, 2' : '622'
'24, 3' : 'null'
'24, 4' : 'null'
'24, 5' : 'null'
'24, 6' : '623'
'24, 7' : 'null'
'24, 8' : 'null'
'24, 9' : '624'
'24, 10' : 'null'
'24, 11' : '625'
'24, 12' : '626'
'24, 13' : '627'
'24, 14' : 'null'
'24, 15' : '628'
'24, 16' : 'null'
'24, 17' : 'null'
'24, 18' : '629'
'24, 19' : 'null'
'24, 20' : 'null'
'24, 21' : 'null'
'24, 22' : '630'
'24, 23' : 'null'
'24, 24' : '631'
'24, 25' : 'null'
'24, 26' : 'null'
'24, 27' : 'null'
'24, 28' : '632'
'24, 29' : 'null'
'24, 30' : '633'
'24, 31' : 'null'
'24, 32' : 'null'
'24, 33' : 'null'
'24, 34' : 'null'
'24, 35' : '634'
'24, 36' : '635'
'24, 37' : 'null'
'24, 38' : '636'
'24, 39' : '637'
'24, 40' : 'null'
'24, 41' : '638'
'24, 42' : 'null'
'24, 43' : '639'
'24, 44' : '640'
'24, 45' : 'null'
'24, 46' : '641'
'24, 47' : '642'
'24, 48' : '643'
'24, 49' : '644'
'25, 0' : 'null'
'25, 1' : 'null'
'25, 2' : 'null'
'25, 3' : '645'
'25, 4' : '646'
'25, 5' : 'null'
'25, 6' : '647'
'25, 7' : 'null'
'25, 8' : 'null'
'25, 9' : '648'
'25, 10' : 'null'
'25, 11' : '649'
'25, 12' : 'null'
'25, 13' : '650'
'25, 14' : 'null'
'25, 15' : 'null'
'25, 16' : '651'
'25, 17' : '652'
'25, 18' : '653'
'25, 19' : '654'
'25, 20' : 'null'
'25, 21' : '655'
'25, 22' : 'null'
'25, 23' : 'null'
'25, 24' : '656'
'25, 25' : 'null'
'25, 26' : '657'
'25, 27' : '658'
'25, 28' : '659'
'25, 29' : 'null'
'25, 30' : '660'
'25, 31' : '661'
'25, 32' : '662'
'25, 33' : '663'
'25, 34' : '664'
'25, 35' : '665'
'25, 36' : '666'
'25, 37' : '667'
'25, 38' : 'null'
'25, 39' : '668'
'25, 40' : 'null'
'25, 41' : 'null'
'25, 42' : '669'
'25, 43' : '670'
'25, 44' : 'null'
'25, 45' : '671'
'25, 46' : 'null'
'25, 47' : 'null'
'25, 48' : '672'
'25, 49' : 'null'
'26, 0' : '673'
'26, 1' : 'null'
'26, 2' : 'null'
'26, 3' : '674'
'26, 4' : '675'
'26, 5' : 'null'
'26, 6' : 'null'
'26, 7' : 'null'
'26, 8' : '676'
'26, 9' : '677'
'26, 10' : '678'
'26, 11' : 'null'
'26, 12' : '679'
'26, 13' : 'null'
'26, 14' : 'null'
'26, 15' : '680'
'26, 16' : 'null'
'26, 17' : 'null'
'26, 18' : 'null'
'26, 19' : 'null'
'26, 20' : '681'
'26, 21' : 'null'
'26, 22' : 'null'
'26, 23' : '682'
'26, 24' : '683'
'26, 25' : 'null'
'26, 26' : 'null'
'26, 27' : 'null'
'26, 28' : '684'
'26, 29' : '685'
'26, 30' : 'null'
'26, 31' : 'null'
'26, 32' : 'null'
'26, 33' : 'null'
'26, 34' : '686'
'26, 35' : 'null'
'26, 36' : 'null'
'26, 37' : '687'
'26, 38' : '688'
'26, 39' : 'null'
'26, 40' : 'null'
'26, 41' : '689'
'26, 42' : 'null'
'26, 43' : '690'
'26, 44' : '691'
'26, 45' : 'null'
'26, 46' : '692'
'26, 47' : '693'
'26, 48' : '694'
'26, 49' : 'null'
'27, 0' : '695'
'27, 1' : '696'
'27, 2' : '697'
'27, 3' : '698'
'27, 4' : '699'
'27, 5' : '700'
'27, 6' : '701'
'27, 7' : '702'
'27, 8' : 'null'
'27, 9' : '703'
'27, 10' : '704'
'27, 11' : '705'
'27, 12' : '706'
'27, 13' : '707'
'27, 14' : 'null'
'27, 15' : '708'
'27, 16' : 'null'
'27, 17' : '709'
'27, 18' : '710'
'27, 19' : 'null'
'27, 20' : '711'
'27, 21' : '712'
'27, 22' : 'null'
'27, 23' : '713'
'27, 24' : 'null'
'27, 25' : 'null'
'27, 26' : '714'
'27, 27' : 'null'
'27, 28' : 'null'
'27, 29' : 'null'
'27, 30' : '715'
'27, 31' : 'null'
'27, 32' : 'null'
'27, 33' : '716'
'27, 34' : 'null'
'27, 35' : 'null'
'27, 36' : '717'
'27, 37' : 'null'
'27, 38' : 'null'
'27, 39' : 'null'
'27, 40' : 'null'
'27, 41' : '718'
'27, 42' : 'null'
'27, 43' : '719'
'27, 44' : '720'
'27, 45' : '721'
'27, 46' : '722'
'27, 47' : '723'
'27, 48' : '724'
'27, 49' : '725'
'28, 0' : 'null'
'28, 1' : 'null'
'28, 2' : 'null'
'28, 3' : '726'
'28, 4' : 'null'
'28, 5' : 'null'
'28, 6' : 'null'
'28, 7' : '727'
'28, 8' : 'null'
'28, 9' : 'null'
'28, 10' : 'null'
'28, 11' : '728'
'28, 12' : 'null'
'28, 13' : '729'
'28, 14' : 'null'
'28, 15' : '730'
'28, 16' : 'null'
'28, 17' : 'null'
'28, 18' : 'null'
'28, 19' : 'null'
'28, 20' : '731'
'28, 21' : '732'
'28, 22' : 'null'
'28, 23' : '733'
'28, 24' : 'null'
'28, 25' : 'null'
'28, 26' : 'null'
'28, 27' : '734'
'28, 28' : 'null'
'28, 29' : '735'
'28, 30' : 'null'
'28, 31' : 'null'
'28, 32' : 'null'
'28, 33' : '736'
'28, 34' : 'null'
'28, 35' : 'null'
'28, 36' : 'null'
'28, 37' : 'null'
'28, 38' : '737'
'28, 39' : 'null'
'28, 40' : 'null'
'28, 41' : '738'
'28, 42' : '739'
'28, 43' : 'null'
'28, 44' : 'null'
'28, 45' : '740'
'28, 46' : '741'
'28, 47' : 'null'
'28, 48' : '742'
'28, 49' : '743'
'29, 0' : '744'
'29, 1' : 'null'
'29, 2' : '745'
'29, 3' : '746'
'29, 4' : 'null'
'29, 5' : '747'
'29, 6' : 'null'
'29, 7' : '748'
'29, 8' : 'null'
'29, 9' : '749'
'29, 10' : 'null'
'29, 11' : 'null'
'29, 12' : 'null'
'29, 13' : '750'
'29, 14' : 'null'
'29, 15' : '751'
'29, 16' : '752'
'29, 17' : '753'
'29, 18' : 'null'
'29, 19' : 'null'
'29, 20' : '754'
'29, 21' : 'null'
'29, 22' : 'null'
'29, 23' : '755'
'29, 24' : '756'
'29, 25' : '757'
'29, 26' : '758'
'29, 27' : '759'
'29, 28' : '760'
'29, 29' : 'null'
'29, 30' : '761'
'29, 31' : 'null'
'29, 32' : '762'
'29, 33' : '763'
'29, 34' : '764'
'29, 35' : 'null'
'29, 36' : '765'
'29, 37' : 'null'
'29, 38' : 'null'
'29, 39' : '766'
'29, 40' : 'null'
'29, 41' : '767'
'29, 42' : '768'
'29, 43' : 'null'
'29, 44' : '769'
'29, 45' : '770'
'29, 46' : '771'
'29, 47' : 'null'
'29, 48' : '772'
'29, 49' : 'null'
'30, 0' : '773'
'30, 1' : '774'
'30, 2' : 'null'
'30, 3' : 'null'
'30, 4' : '775'
'30, 5' : '776'
'30, 6' : '777'
'30, 7' : 'null'
'30, 8' : '778'
'30, 9' : '779'
'30, 10' : 'null'
'30, 11' : 'null'
'30, 12' : '780'
'30, 13' : '781'
'30, 14' : '782'
'30, 15' : '783'
'30, 16' : '784'
'30, 17' : 'null'
'30, 18' : '785'
'30, 19' : 'null'
'30, 20' : 'null'
'30, 21' : 'null'
'30, 22' : 'null'
'30, 23' : 'null'
'30, 24' : '786'
'30, 25' : 'null'
'30, 26' : '787'
'30, 27' : '788'
'30, 28' : '789'
'30, 29' : 'null'
'30, 30' : '790'
'30, 31' : 'null'
'30, 32' : '791'
'30, 33' : 'null'
'30, 34' : 'null'
'30, 35' : '792'
'30, 36' : 'null'
'30, 37' : 'null'
'30, 38' : '793'
'30, 39' : '794'
'30, 40' : 'null'
'30, 41' : 'null'
'30, 42' : '795'
'30, 43' : '796'
'30, 44' : 'null'
'30, 45' : 'null'
'30, 46' : '797'
'30, 47' : '798'
'30, 48' : '799'
'30, 49' : '800'
'31, 0' : 'null'
'31, 1' : '801'
'31, 2' : 'null'
'31, 3' : '802'
'31, 4' : '803'
'31, 5' : 'null'
'31, 6' : 'null'
'31, 7' : 'null'
'31, 8' : 'null'
'31, 9' : '804'
'31, 10' : 'null'
'31, 11' : '805'
'31, 12' : 'null'
'31, 13' : '806'
'31, 14' : 'null'
'31, 15' : '807'
'31, 16' : 'null'
'31, 17' : 'null'
'31, 18' : 'null'
'31, 19' : 'null'
'31, 20' : '808'
'31, 21' : 'null'
'31, 22' : '809'
'31, 23' : 'null'
'31, 24' : '810'
'31, 25' : '811'
'31, 26' : 'null'
'31, 27' : '812'
'31, 28' : 'null'
'31, 29' : 'null'
'31, 30' : '813'
'31, 31' : 'null'
'31, 32' : 'null'
'31, 33' : 'null'
'31, 34' : 'null'
'31, 35' : '814'
'31, 36' : '815'
'31, 37' : '816'
'31, 38' : '817'
'31, 39' : '818'
'31, 40' : 'null'
'31, 41' : '819'
'31, 42' : 'null'
'31, 43' : 'null'
'31, 44' : '820'
'31, 45' : 'null'
'31, 46' : 'null'
'31, 47' : '821'
'31, 48' : 'null'
'31, 49' : '822'
'32, 0' : '823'
'32, 1' : '824'
'32, 2' : '825'
'32, 3' : 'null'
'32, 4' : 'null'
'32, 5' : '826'
'32, 6' : '827'
'32, 7' : 'null'
'32, 8' : 'null'
'32, 9' : 'null'
'32, 10' : 'null'
'32, 11' : '828'
'32, 12' : 'null'
'32, 13' : 'null'
'32, 14' : '829'
'32, 15' : '830'
'32, 16' : '831'
'32, 17' : 'null'
'32, 18' : '832'
'32, 19' : '833'
'32, 20' : '834'
'32, 21' : 'null'
'32, 22' : 'null'
'32, 23' : '835'
'32, 24' : '836'
'32, 25' : 'null'
'32, 26' : 'null'
'32, 27' : '837'
'32, 28' : '838'
'32, 29' : 'null'
'32, 30' : 'null'
'32, 31' : 'null'
'32, 32' : 'null'
'32, 33' : 'null'
'32, 34' : 'null'
'32, 35' : 'null'
'32, 36' : '839'
'32, 37' : 'null'
'32, 38' : '840'
'32, 39' : 'null'
'32, 40' : 'null'
'32, 41' : '841'
'32, 42' : '842'
'32, 43' : 'null'
'32, 44' : 'null'
'32, 45' : '843'
'32, 46' : 'null'
'32, 47' : '844'
'32, 48' : 'null'
'32, 49' : 'null'
'33, 0' : '845'
'33, 1' : 'null'
'33, 2' : 'null'
'33, 3' : '846'
'33, 4' : 'null'
'33, 5' : '847'
'33, 6' : 'null'
'33, 7' : 'null'
'33, 8' : 'null'
'33, 9' : 'null'
'33, 10' : 'null'
'33, 11' : '848'
'33, 12' : 'null'
'33, 13' : 'null'
'33, 14' : 'null'
'33, 15' : '849'
'33, 16' : 'null'
'33, 17' : 'null'
'33, 18' : 'null'
'33, 19' : 'null'
'33, 20' : '850'
'33, 21' : 'null'
'33, 22' : 'null'
'33, 23' : 'null'
'33, 24' : '851'
'33, 25' : '852'
'33, 26' : 'null'
'33, 27' : '853'
'33, 28' : 'null'
'33, 29' : '854'
'33, 30' : '855'
'33, 31' : 'null'
'33, 32' : 'null'
'33, 33' : 'null'
'33, 34' : '856'
'33, 35' : 'null'
'33, 36' : 'null'
'33, 37' : 'null'
'33, 38' : '857'
'33, 39' : 'null'
'33, 40' : 'null'
'33, 41' : '858'
'33, 42' : 'null'
'33, 43' : 'null'
'33, 44' : '859'
'33, 45' : 'null'
'33, 46' : '860'
'33, 47' : '861'
'33, 48' : 'null'
'33, 49' : 'null'
'34, 0' : 'null'
'34, 1' : '862'
'34, 2' : '863'
'34, 3' : '864'
'34, 4' : '865'
'34, 5' : '866'
'34, 6' : '867'
'34, 7' : '868'
'34, 8' : 'null'
'34, 9' : '869'
'34, 10' : '870'
'34, 11' : 'null'
'34, 12' : 'null'
'34, 13' : '871'
'34, 14' : '872'
'34, 15' : '873'
'34, 16' : '874'
'34, 17' : '875'
'34, 18' : 'null'
'34, 19' : 'null'
'34, 20' : 'null'
'34, 21' : '876'
'34, 22' : 'null'
'34, 23' : 'null'
'34, 24' : 'null'
'34, 25' : '877'
'34, 26' : 'null'
'34, 27' : '878'
'34, 28' : 'null'
'34, 29' : '879'
'34, 30' : 'null'
'34, 31' : '880'
'34, 32' : 'null'
'34, 33' : 'null'
'34, 34' : '881'
'34, 35' : 'null'
'34, 36' : 'null'
'34, 37' : 'null'
'34, 38' : 'null'
'34, 39' : 'null'
'34, 40' : '882'
'34, 41' : '883'
'34, 42' : '884'
'34, 43' : '885'
'34, 44' : 'null'
'34, 45' : '886'
'34, 46' : '887'
'34, 47' : '888'
'34, 48' : 'null'
'34, 49' : 'null'
'35, 0' : '889'
'35, 1' : '890'
'35, 2' : 'null'
'35, 3' : 'null'
'35, 4' : '891'
'35, 5' : 'null'
'35, 6' : '892'
'35, 7' : '893'
'35, 8' : '894'
'35, 9' : '895'
'35, 10' : 'null'
'35, 11' : 'null'
'35, 12' : '896'
'35, 13' : 'null'
'35, 14' : '897'
'35, 15' : 'null'
'35, 16' : '898'
'35, 17' : '899'
'35, 18' : 'null'
'35, 19' : '900'
'35, 20' : '901'
'35, 21' : '902'
'35, 22' : 'null'
'35, 23' : '903'
'35, 24' : '904'
'35, 25' : '905'
'35, 26' : '906'
'35, 27' : 'null'
'35, 28' : 'null'
'35, 29' : 'null'
'35, 30' : '907'
'35, 31' : 'null'
'35, 32' : '908'
'35, 33' : '909'
'35, 34' : '910'
'35, 35' : '911'
'35, 36' : '912'
'35, 37' : '913'
'35, 38' : '914'
'35, 39' : 'null'
'35, 40' : 'null'
'35, 41' : '915'
'35, 42' : 'null'
'35, 43' : 'null'
'35, 44' : '916'
'35, 45' : 'null'
'35, 46' : '917'
'35, 47' : 'null'
'35, 48' : 'null'
'35, 49' : '918'
'36, 0' : '919'
'36, 1' : 'null'
'36, 2' : '920'
'36, 3' : '921'
'36, 4' : '922'
'36, 5' : 'null'
'36, 6' : 'null'
'36, 7' : '923'
'36, 8' : '924'
'36, 9' : 'null'
'36, 10' : '925'
'36, 11' : 'null'
'36, 12' : 'null'
'36, 13' : 'null'
'36, 14' : '926'
'36, 15' : 'null'
'36, 16' : 'null'
'36, 17' : 'null'
'36, 18' : 'null'
'36, 19' : '927'
'36, 20' : '928'
'36, 21' : '929'
'36, 22' : '930'
'36, 23' : 'null'
'36, 24' : 'null'
'36, 25' : 'null'
'36, 26' : 'null'
'36, 27' : 'null'
'36, 28' : '931'
'36, 29' : 'null'
'36, 30' : 'null'
'36, 31' : '932'
'36, 32' : '933'
'36, 33' : 'null'
'36, 34' : 'null'
'36, 35' : 'null'
'36, 36' : '934'
'36, 37' : 'null'
'36, 38' : '935'
'36, 39' : '936'
'36, 40' : 'null'
'36, 41' : 'null'
'36, 42' : 'null'
'36, 43' : 'null'
'36, 44' : '937'
'36, 45' : 'null'
'36, 46' : 'null'
'36, 47' : 'null'
'36, 48' : 'null'
'36, 49' : '938'
'37, 0' : '939'
'37, 1' : 'null'
'37, 2' : 'null'
'37, 3' : 'null'
'37, 4' : 'null'
'37, 5' : '940'
'37, 6' : 'null'
'37, 7' : 'null'
'37, 8' : 'null'
'37, 9' : 'null'
'37, 10' : 'null'
'37, 11' : '941'
'37, 12' : 'null'
'37, 13' : 'null'
'37, 14' : 'null'
'37, 15' : 'null'
'37, 16' : '942'
'37, 17' : '943'
'37, 18' : 'null'
'37, 19' : 'null'
'37, 20' : '944'
'37, 21' : 'null'
'37, 22' : '945'
'37, 23' : 'null'
'37, 24' : 'null'
'37, 25' : 'null'
'37, 26' : 'null'
'37, 27' : 'null'
'37, 28' : 'null'
'37, 29' : 'null'
'37, 30' : 'null'
'37, 31' : 'null'
'37, 32' : 'null'
'37, 33' : 'null'
'37, 34' : '946'
'37, 35' : 'null'
'37, 36' : '947'
'37, 37' : '948'
'37, 38' : 'null'
'37, 39' : 'null'
'37, 40' : 'null'
'37, 41' : '949'
'37, 42' : '950'
'37, 43' : '951'
'37, 44' : 'null'
'37, 45' : '952'
'37, 46' : '953'
'37, 47' : 'null'
'37, 48' : 'null'
'37, 49' : 'null'
'38, 0' : 'null'
'38, 1' : '954'
'38, 2' : 'null'
'38, 3' : '955'
'38, 4' : 'null'
'38, 5' : '956'
'38, 6' : 'null'
'38, 7' : 'null'
'38, 8' : 'null'
'38, 9' : '957'
'38, 10' : 'null'
'38, 11' : 'null'
'38, 12' : '958'
'38, 13' : 'null'
'38, 14' : 'null'
'38, 15' : '959'
'38, 16' : '960'
'38, 17' : 'null'
'38, 18' : 'null'
'38, 19' : 'null'
'38, 20' : '961'
'38, 21' : '962'
'38, 22' : '963'
'38, 23' : '964'
'38, 24' : '965'
'38, 25' : '966'
'38, 26' : '967'
'38, 27' : '968'
'38, 28' : 'null'
'38, 29' : 'null'
'38, 30' : '969'
'38, 31' : '970'
'38, 32' : 'null'
'38, 33' : 'null'
'38, 34' : '971'
'38, 35' : '972'
'38, 36' : '973'
'38, 37' : 'null'
'38, 38' : 'null'
'38, 39' : '974'
'38, 40' : '975'
'38, 41' : '976'
'38, 42' : '977'
'38, 43' : 'null'
'38, 44' : 'null'
'38, 45' : '978'
'38, 46' : 'null'
'38, 47' : 'null'
'38, 48' : '979'
'38, 49' : 'null'
'39, 0' : 'null'
'39, 1' : 'null'
'39, 2' : 'null'
'39, 3' : '980'
'39, 4' : 'null'
'39, 5' : 'null'
'39, 6' : '981'
'39, 7' : 'null'
'39, 8' : '982'
'39, 9' : 'null'
'39, 10' : '983'
'39, 11' : 'null'
'39, 12' : '984'
'39, 13' : '985'
'39, 14' : '986'
'39, 15' : 'null'
'39, 16' : 'null'
'39, 17' : 'null'
'39, 18' : '987'
'39, 19' : '988'
'39, 20' : '989'
'39, 21' : '990'
'39, 22' : '991'
'39, 23' : '992'
'39, 24' : '993'
'39, 25' : 'null'
'39, 26' : 'null'
'39, 27' : '994'
'39, 28' : 'null'
'39, 29' : 'null'
'39, 30' : '995'
'39, 31' : '996'
'39, 32' : '997'
'39, 33' : 'null'
'39, 34' : 'null'
'39, 35' : '998'
'39, 36' : '999'
'39, 37' : 'null'
'39, 38' : '1000'
'39, 39' : '1001'
'39, 40' : '1002'
'39, 41' : '1003'
'39, 42' : 'null'
'39, 43' : 'null'
'39, 44' : '1004'
'39, 45' : 'null'
'39, 46' : '1005'
'39, 47' : '1006'
'39, 48' : 'null'
'39, 49' : '1007'
'40, 0' : 'null'
'40, 1' : 'null'
'40, 2' : '1008'
'40, 3' : 'null'
'40, 4' : 'null'
'40, 5' : '1009'
'40, 6' : '1010'
'40, 7' : 'null'
'40, 8' : 'null'
'40, 9' : '1011'
'40, 10' : '1012'
'40, 11' : 'null'
'40, 12' : '1013'
'40, 13' : 'null'
'40, 14' : 'null'
'40, 15' : '1014'
'40, 16' : 'null'
'40, 17' : 'null'
'40, 18' : 'null'
'40, 19' : 'null'
'40, 20' : 'null'
'40, 21' : 'null'
'40, 22' : 'null'
'40, 23' : 'null'
'40, 24' : 'null'
'40, 25' : '1015'
'40, 26' : 'null'
'40, 27' : '1016'
'40, 28' : '1017'
'40, 29' : 'null'
'40, 30' : 'null'
'40, 31' : '1018'
'40, 32' : '1019'
'40, 33' : 'null'
'40, 34' : 'null'
'40, 35' : '1020'
'40, 36' : 'null'
'40, 37' : '1021'
'40, 38' : '1022'
'40, 39' : '1023'
'40, 40' : '1024'
'40, 41' : 'null'
'40, 42' : '1025'
'40, 43' : '1026'
'40, 44' : '1027'
'40, 45' : 'null'
'40, 46' : '1028'
'40, 47' : 'null'
'40, 48' : '1029'
'40, 49' : '1030'
'41, 0' : 'null'
'41, 1' : '1031'
'41, 2' : 'null'
'41, 3' : 'null'
'41, 4' : '1032'
'41, 5' : 'null'
'41, 6' : '1033'
'41, 7' : '1034'
'41, 8' : '1035'
'41, 9' : 'null'
'41, 10' : '1036'
'41, 11' : '1037'
'41, 12' : '1038'
'41, 13' : 'null'
'41, 14' : 'null'
'41, 15' : '1039'
'41, 16' : 'null'
'41, 17' : '1040'
'41, 18' : 'null'
'41, 19' : '1041'
'41, 20' : '1042'
'41, 21' : 'null'
'41, 22' : '1043'
'41, 23' : '1044'
'41, 24' : '1045'
'41, 25' : '1046'
'41, 26' : 'null'
'41, 27' : 'null'
'41, 28' : '1047'
'41, 29' : '1048'
'41, 30' : '1049'
'41, 31' : '1050'
'41, 32' : 'null'
'41, 33' : '1051'
'41, 34' : 'null'
'41, 35' : 'null'
'41, 36' : '1052'
'41, 37' : '1053'
'41, 38' : 'null'
'41, 39' : '1054'
'41, 40' : 'null'
'41, 41' : 'null'
'41, 42' : '1055'
'41, 43' : 'null'
'41, 44' : '1056'
'41, 45' : '1057'
'41, 46' : '1058'
'41, 47' : '1059'
'41, 48' : '1060'
'41, 49' : '1061'
'42, 0' : 'null'
'42, 1' : 'null'
'42, 2' : '1062'
'42, 3' : 'null'
'42, 4' : 'null'
'42, 5' : '1063'
'42, 6' : 'null'
'42, 7' : '1064'
'42, 8' : '1065'
'42, 9' : '1066'
'42, 10' : '1067'
'42, 11' : 'null'
'42, 12' : 'null'
'42, 13' : 'null'
'42, 14' : '1068'
'42, 15' : '1069'
'42, 16' : '1070'
'42, 17' : '1071'
'42, 18' : 'null'
'42, 19' : '1072'
'42, 20' : '1073'
'42, 21' : '1074'
'42, 22' : '1075'
'42, 23' : '1076'
'42, 24' : 'null'
'42, 25' : '1077'
'42, 26' : '1078'
'42, 27' : '1079'
'42, 28' : '1080'
'42, 29' : '1081'
'42, 30' : 'null'
'42, 31' : 'null'
'42, 32' : '1082'
'42, 33' : '1083'
'42, 34' : 'null'
'42, 35' : 'null'
'42, 36' : '1084'
'42, 37' : 'null'
'42, 38' : '1085'
'42, 39' : '1086'
'42, 40' : 'null'
'42, 41' : '1087'
'42, 42' : '1088'
'42, 43' : '1089'
'42, 44' : 'null'
'42, 45' : 'null'
'42, 46' : '1090'
'42, 47' : '1091'
'42, 48' : '1092'
'42, 49' : '1093'
'43, 0' : 'null'
'43, 1' : '1094'
'43, 2' : '1095'
'43, 3' : '1096'
'43, 4' : 'null'
'43, 5' : 'null'
'43, 6' : '1097'
'43, 7' : 'null'
'43, 8' : '1098'
'43, 9' : '1099'
'43, 10' : 'null'
'43, 11' : '1100'
'43, 12' : 'null'
'43, 13' : 'null'
'43, 14' : 'null'
'43, 15' : 'null'
'43, 16' : 'null'
'43, 17' : '1101'
'43, 18' : 'null'
'43, 19' : 'null'
'43, 20' : '1102'
'43, 21' : 'null'
'43, 22' : '1103'
'43, 23' : 'null'
'43, 24' : '1104'
'43, 25' : 'null'
'43, 26' : 'null'
'43, 27' : '1105'
'43, 28' : '1106'
'43, 29' : 'null'
'43, 30' : '1107'
'43, 31' : 'null'
'43, 32' : 'null'
'43, 33' : 'null'
'43, 34' : '1108'
'43, 35' : 'null'
'43, 36' : '1109'
'43, 37' : 'null'
'43, 38' : 'null'
'43, 39' : '1110'
'43, 40' : '1111'
'43, 41' : 'null'
'43, 42' : '1112'
'43, 43' : '1113'
'43, 44' : 'null'
'43, 45' : 'null'
'43, 46' : '1114'
'43, 47' : '1115'
'43, 48' : '1116'
'43, 49' : '1117'
'44, 0' : 'null'
'44, 1' : 'null'
'44, 2' : '1118'
'44, 3' : '1119'
'44, 4' : '1120'
'44, 5' : '1121'
'44, 6' : '1122'
'44, 7' : 'null'
'44, 8' : '1123'
'44, 9' : 'null'
'44, 10' : 'null'
'44, 11' : '1124'
'44, 12' : 'null'
'44, 13' : '1125'
'44, 14' : '1126'
'44, 15' : '1127'
'44, 16' : 'null'
'44, 17' : '1128'
'44, 18' : '1129'
'44, 19' : 'null'
'44, 20' : '1130'
'44, 21' : '1131'
'44, 22' : 'null'
'44, 23' : '1132'
'44, 24' : 'null'
'44, 25' : 'null'
'44, 26' : 'null'
'44, 27' : '1133'
'44, 28' : 'null'
'44, 29' : 'null'
'44, 30' : 'null'
'44, 31' : '1134'
'44, 32' : 'null'
'44, 33' : 'null'
'44, 34' : '1135'
'44, 35' : '1136'
'44, 36' : 'null'
'44, 37' : '1137'
'44, 38' : '1138'
'44, 39' : '1139'
'44, 40' : '1140'
'44, 41' : '1141'
'44, 42' : 'null'
'44, 43' : '1142'
'44, 44' : 'null'
'44, 45' : '1143'
'44, 46' : '1144'
'44, 47' : '1145'
'44, 48' : 'null'
'44, 49' : '1146'
'45, 0' : 'null'
'45, 1' : '1147'
'45, 2' : 'null'
'45, 3' : 'null'
'45, 4' : 'null'
'45, 5' : '1148'
'45, 6' : 'null'
'45, 7' : '1149'
'45, 8' : 'null'
'45, 9' : '1150'
'45, 10' : '1151'
'45, 11' : '1152'
'45, 12' : '1153'
'45, 13' : '1154'
'45, 14' : 'null'
'45, 15' : 'null'
'45, 16' : '1155'
'45, 17' : 'null'
'45, 18' : 'null'
'45, 19' : 'null'
'45, 20' : 'null'
'45, 21' : '1156'
'45, 22' : '1157'
'45, 23' : 'null'
'45, 24' : '1158'
'45, 25' : 'null'
'45, 26' : 'null'
'45, 27' : 'null'
'45, 28' : '1159'
'45, 29' : '1160'
'45, 30' : '1161'
'45, 31' : 'null'
'45, 32' : 'null'
'45, 33' : '1162'
'45, 34' : '1163'
'45, 35' : 'null'
'45, 36' : 'null'
'45, 37' : '1164'
'45, 38' : '1165'
'45, 39' : '1166'
'45, 40' : 'null'
'45, 41' : 'null'
'45, 42' : '1167'
'45, 43' : 'null'
'45, 44' : 'null'
'45, 45' : 'null'
'45, 46' : '1168'
'45, 47' : '1169'
'45, 48' : '1170'
'45, 49' : 'null'
'46, 0' : 'null'
'46, 1' : 'null'
'46, 2' : '1171'
'46, 3' : '1172'
'46, 4' : 'null'
'46, 5' : 'null'
'46, 6' : '1173'
'46, 7' : 'null'
'46, 8' : '1174'
'46, 9' : '1175'
'46, 10' : 'null'
'46, 11' : '1176'
'46, 12' : 'null'
'46, 13' : '1177'
'46, 14' : 'null'
'46, 15' : 'null'
'46, 16' : '1178'
'46, 17' : '1179'
'46, 18' : 'null'
'46, 19' : 'null'
'46, 20' : '1180'
'46, 21' : '1181'
'46, 22' : 'null'
'46, 23' : 'null'
'46, 24' : 'null'
'46, 25' : '1182'
'46, 26' : 'null'
'46, 27' : 'null'
'46, 28' : '1183'
'46, 29' : '1184'
'46, 30' : '1185'
'46, 31' : '1186'
'46, 32' : '1187'
'46, 33' : 'null'
'46, 34' : '1188'
'46, 35' : 'null'
'46, 36' : 'null'
'46, 37' : 'null'
'46, 38' : 'null'
'46, 39' : '1189'
'46, 40' : 'null'
'46, 41' : 'null'
'46, 42' : 'null'
'46, 43' : 'null'
'46, 44' : 'null'
'46, 45' : 'null'
'46, 46' : '1190'
'46, 47' : '1191'
'46, 48' : 'null'
'46, 49' : 'null'
'47, 0' : 'null'
'47, 1' : 'null'
'47, 2' : '1192'
'47, 3' : 'null'
'47, 4' : '1193'
'47, 5' : '1194'
'47, 6' : 'null'
'47, 7' : '1195'
'47, 8' : '1196'
'47, 9' : '1197'
'47, 10' : 'null'
'47, 11' : '1198'
'47, 12' : 'null'
'47, 13' : 'null'
'47, 14' : 'null'
'47, 15' : '1199'
'47, 16' : 'null'
'47, 17' : 'null'
'47, 18' : '1200'
'47, 19' : '1201'
'47, 20' : '1202'
'47, 21' : '1203'
'47, 22' : 'null'
'47, 23' : 'null'
'47, 24' : '1204'
'47, 25' : '1205'
'47, 26' : '1206'
'47, 27' : 'null'
'47, 28' : '1207'
'47, 29' : '1208'
'47, 30' : '1209'
'47, 31' : '1210'
'47, 32' : '1211'
'47, 33' : '1212'
'47, 34' : '1213'
'47, 35' : '1214'
'47, 36' : 'null'
'47, 37' : 'null'
'47, 38' : 'null'
'47, 39' : 'null'
'47, 40' : 'null'
'47, 41' : 'null'
'47, 42' : '1215'
'47, 43' : '1216'
'47, 44' : '1217'
'47, 45' : '1218'
'47, 46' : 'null'
'47, 47' : '1219'
'47, 48' : '1220'
'47, 49' : 'null'
'48, 0' : '1221'
'48, 1' : 'null'
'48, 2' : 'null'
'48, 3' : '1222'
'48, 4' : 'null'
'48, 5' : 'null'
'48, 6' : 'null'
'48, 7' : '1223'
'48, 8' : 'null'
'48, 9' : '1224'
'48, 10' : '1225'
'48, 11' : 'null'
'48, 12' : '1226'
'48, 13' : '1227'
'48, 14' : 'null'
'48, 15' : 'null'
'48, 16' : 'null'
'48, 17' : '1228'
'48, 18' : '1229'
'48, 19' : '1230'
'48, 20' : '1231'
'48, 21' : '1232'
'48, 22' : '1233'
'48, 23' : 'null'
'48, 24' : 'null'
'48, 25' : 'null'
'48, 26' : 'null'
'48, 27' : 'null'
'48, 28' : '1234'
'48, 29' : 'null'
'48, 30' : '1235'
'48, 31' : '1236'
'48, 32' : '1237'
'48, 33' : '1238'
'48, 34' : 'null'
'48, 35' : 'null'
'48, 36' : 'null'
'48, 37' : '1239'
'48, 38' : 'null'
'48, 39' : 'null'
'48, 40' : '1240'
'48, 41' : '1241'
'48, 42' : '1242'
'48, 43' : 'null'
'48, 44' : '1243'
'48, 45' : '1244'
'48, 46' : '1245'
'48, 47' : '1246'
'48, 48' : 'null'
'48, 49' : '1247'
'49, 0' : '1248'
'49, 1' : 'null'
'49, 2' : '1249'
'49, 3' : 'null'
'49, 4' : '1250'
'49, 5' : 'null'
'49, 6' : '1251'
'49, 7' : '1252'
'49, 8' : 'null'
'49, 9' : '1253'
'49, 10' : 'null'
'49, 11' : '1254'
'49, 12' : '1255'
'49, 13' : 'null'
'49, 14' : '1256'
'49, 15' : 'null'
'49, 16' : 'null'
'49, 17' : '1257'
'49, 18' : 'null'
'49, 19' : 'null'
'49, 20' : '1258'
'49, 21' : 'null'
'49, 22' : 'null'
'49, 23' : 'null'
'49, 24' : 'null'
'49, 25' : '1259'
'49, 26' : '1260'
'49, 27' : 'null'
'49, 28' : 'null'
'49, 29' : '1261'
'49, 30' : '1262'
'49, 31' : '1263'
'49, 32' : 'null'
'49, 33' : '1264'
'49, 34' : 'null'
'49, 35' : 'null'
'49, 36' : '1265'
'49, 37' : '1266'
'49, 38' : '1267'
'49, 39' : 'null'
'49, 40' : 'null'
'49, 41' : '1268'
'49, 42' : '1269'
'49, 43' : 'null'
'49, 44' : '1270'
'49, 45' : 'null'
'49, 46' : '1271'
'49, 47' : '1272'
'49, 48' : '1273'
'49, 49' : 'null'
